Query  Target  Count  Score
Met    Leu     60     2
Val    Ile     34     3
Leu    Met     25     2
Ile    Val     22     3
Met    Ile     20     1
Thr    Ala     19     0
Leu    Ile     19     2
Ser    Thr     18     1
Ile    Leu     18     2
Thr    Ser     15     1
Thr    Leu     15     -1
Thr    Ile     15     -1
Ala    Thr     15     0
Thr    Met     14     -1
Ile    Met     14     1
Met    Thr     13     -1
Ser    Ala     12     1
Ile    Thr     11     -1
Val    Thr     10     0
Val    Met     10     1
Phe    Tyr     10     3
Asn    Ser     10     1
Leu    Phe     9      0
Pro    Ser     8      -1
Met    Ser     8      -1
Val    Ala     7      0
Met    Val     7      1
Ser    Gly     6      0
Ser    Asn     6      1
Phe    Leu     6      0
Leu    Val     6      1
Leu    Ser     6      -2
Ala    Met     6      -1
Thr    Pro     5      -1
Thr    Asn     5      0
Ser    Leu     5      -2
Leu    Thr     5      -1
His    Tyr     5      2
Asp    Glu     5      2
Asn    Asp     5      1
Val    Leu     4      1
Thr    Val     4      0
Met    Phe     4      0
Met    Ala     4      -1
His    Gln     4      0
Gly    Ser     4      0
Asn    Lys     4      0
Asn    Gln     4      0
Ala    Ser     4      1
Ala    Leu     4      -1
Val    Phe     3      -1
Tyr    Ser     3      -2
Tyr    His     3      2
Ser    Ile     3      -2
Phe    Ser     3      -2
Phe    Ile     3      0
Leu    Pro     3      -3
Ile    Pro     3      -3
Ile    Ala     3      -1
Gln    Lys     3      1
Gln    Leu     3      -2
Asn    Thr     3      0
Asn    His     3      1
Ala    Lys     3      -1
Ala    Ile     3      -1
Tyr    Phe     2      3
Tyr    Asn     2      -2
Tyr    Ala     2      -2
Thr    His     2      -2
Ser    Pro     2      -1
Ser    Phe     2      -2
Ser    Met     2      -1
Pro    Leu     2      -3
Phe    Val     2      -1
Met    Lys     2      -1
Lys    Thr     2      -1
Lys    Asn     2      0
Lys    Arg     2      2
Leu    Ala     2      -1
Ile    Phe     2      0
Ile    Lys     2      -3
His    Ser     2      -1
His    Asn     2      1
Gly    Asp     2      -1
Gly    Asn     2      0
Gln    Tyr     2      -1
Gln    ***     2      -4
Cys    Tyr     2      -2
Asn    Ile     2      -3
Asn    Glu     2      0
Ala    Val     2      0
Val    Asn     1      -3
Tyr    Met     1      -1
Tyr    Gln     1      -1
Trp    Lys     1      -3
Thr    Trp     1      -2
Thr    Phe     1      -2
Thr    Lys     1      -1
Thr    Gln     1      -1
Thr    Cys     1      -1
Ser    Lys     1      0
Ser    Gln     1      0
Pro    Thr     1      -1
Pro    Phe     1      -4
Pro    Met     1      -2
Pro    His     1      -2
Pro    Ala     1      -1
Phe    Thr     1      -2
Phe    His     1      -1
Phe    Cys     1      -2
Met    Tyr     1      -1
Met    His     1      -2
Met    Gln     1      0
Met    Asp     1      -3
Met    Asn     1      -2
Lys    Tyr     1      -2
Lys    Trp     1      -3
Lys    Ser     1      0
Lys    Pro     1      -1
Lys    Met     1      -1
Lys    His     1      -1
Lys    Gly     1      -2
Lys    Glu     1      1
Lys    Gln     1      1
***    Lys     1      -4
Leu    Tyr     1      -1
Leu    His     1      -3
Ile    Tyr     1      -1
Ile    Ser     1      -2
Ile    Arg     1      -3
His    Pro     1      -2
His    Leu     1      -3
His    Cys     1      -3
Gly    Trp     1      -2
Gly    Met     1      -3
Gly    Lys     1      -2
Gly    His     1      -2
Gly    Glu     1      -2
Gly    Ala     1      0
Glu    Pro     1      -1
Glu    Gly     1      -2
Gln    Ser     1      0
Gln    Pro     1      -1
Gln    Glu     1      2
Gln    Asn     1      0
Cys    Thr     1      -1
Cys    Ser     1      -1
Asp    Asn     1      1
Asn    Tyr     1      -2
Asn    Pro     1      -2
Asn    Met     1      -2
Asn    Gly     1      0
Asn    Ala     1      -2
Arg    Trp     1      -3
Arg    Ser     1      -1
Ala    Trp     1      -3
Ala    Gly     1      0
Ala    Asn     1      -2
